\relax 
\providecommand\hyper@newdestlabel[2]{}
\providecommand\HyperFirstAtBeginDocument{\AtBeginDocument}
\HyperFirstAtBeginDocument{\ifx\hyper@anchor\@undefined
\global\let\oldcontentsline\contentsline
\gdef\contentsline#1#2#3#4{\oldcontentsline{#1}{#2}{#3}}
\global\let\oldnewlabel\newlabel
\gdef\newlabel#1#2{\newlabelxx{#1}#2}
\gdef\newlabelxx#1#2#3#4#5#6{\oldnewlabel{#1}{{#2}{#3}}}
\AtEndDocument{\ifx\hyper@anchor\@undefined
\let\contentsline\oldcontentsline
\let\newlabel\oldnewlabel
\fi}
\fi}
\global\let\hyper@last\relax 
\gdef\HyperFirstAtBeginDocument#1{#1}
\providecommand\HyField@AuxAddToFields[1]{}
\providecommand\HyField@AuxAddToCoFields[2]{}
\babel@aux{english}{}
\newlabel{UHI_Automation_Doc::doc}{{}{1}{}{section*.2}{}}
\@writefile{toc}{\contentsline {chapter}{\numberline {1}Introduction}{3}{chapter.1}\protected@file@percent }
\@writefile{lof}{\addvspace {10\p@ }}
\@writefile{lot}{\addvspace {10\p@ }}
\newlabel{src/introduction:introduction}{{1}{3}{Introduction}{chapter.1}{}}
\newlabel{src/introduction:id1}{{1}{3}{Introduction}{chapter.1}{}}
\newlabel{src/introduction::doc}{{1}{3}{Introduction}{chapter.1}{}}
\@writefile{toc}{\contentsline {section}{\numberline {1.1}Concept}{3}{section.1.1}\protected@file@percent }
\newlabel{src/introduction:concept}{{1.1}{3}{Concept}{section.1.1}{}}
\newlabel{src/introduction:id2}{{1.1}{3}{Concept}{section.1.1}{}}
\@writefile{toc}{\contentsline {chapter}{\numberline {2}Getting started}{5}{chapter.2}\protected@file@percent }
\@writefile{lof}{\addvspace {10\p@ }}
\@writefile{lot}{\addvspace {10\p@ }}
\newlabel{src/getting_started:getting-started}{{2}{5}{Getting started}{chapter.2}{}}
\newlabel{src/getting_started:id1}{{2}{5}{Getting started}{chapter.2}{}}
\newlabel{src/getting_started::doc}{{2}{5}{Getting started}{chapter.2}{}}
\@writefile{toc}{\contentsline {section}{\numberline {2.1}Pre-requisite : Hardware}{5}{section.2.1}\protected@file@percent }
\newlabel{src/getting_started:pre-requisite-hardware}{{2.1}{5}{Pre-requisite : Hardware}{section.2.1}{}}
\newlabel{src/getting_started:prerequisite-hardware}{{2.1}{5}{Pre-requisite : Hardware}{section.2.1}{}}
\@writefile{toc}{\contentsline {section}{\numberline {2.2}Pre-requisite : Software}{6}{section.2.2}\protected@file@percent }
\newlabel{src/getting_started:pre-requisite-software}{{2.2}{6}{Pre-requisite : Software}{section.2.2}{}}
\newlabel{src/getting_started:prerequisite-software}{{2.2}{6}{Pre-requisite : Software}{section.2.2}{}}
\@writefile{toc}{\contentsline {section}{\numberline {2.3}Test Execution}{7}{section.2.3}\protected@file@percent }
\newlabel{src/getting_started:test-execution}{{2.3}{7}{Test Execution}{section.2.3}{}}
\@writefile{toc}{\contentsline {subsection}{\numberline {2.3.1}Important info / Issues:}{7}{subsection.2.3.1}\protected@file@percent }
\newlabel{src/getting_started:important-info-issues}{{2.3.1}{7}{Important info / Issues:}{subsection.2.3.1}{}}
\@writefile{toc}{\contentsline {chapter}{\numberline {3}Test Data Setup}{9}{chapter.3}\protected@file@percent }
\@writefile{lof}{\addvspace {10\p@ }}
\@writefile{lot}{\addvspace {10\p@ }}
\newlabel{src/test_data_setup:test-data-setup}{{3}{9}{Test Data Setup}{chapter.3}{}}
\newlabel{src/test_data_setup::doc}{{3}{9}{Test Data Setup}{chapter.3}{}}
\@writefile{toc}{\contentsline {section}{\numberline {3.1}Important Info:}{9}{section.3.1}\protected@file@percent }
\newlabel{src/test_data_setup:important-info}{{3.1}{9}{Important Info:}{section.3.1}{}}
\@writefile{toc}{\contentsline {chapter}{\numberline {4}py : \_\_init\_\_}{11}{chapter.4}\protected@file@percent }
\@writefile{lof}{\addvspace {10\p@ }}
\@writefile{lot}{\addvspace {10\p@ }}
\newlabel{src/Define_init:module-src.Define_init}{{4}{11}{py : \_\_init\_\_}{chapter.4}{}}
\newlabel{src/Define_init:py-init}{{4}{11}{py : \_\_init\_\_}{chapter.4}{}}
\newlabel{src/Define_init::doc}{{4}{11}{py : \_\_init\_\_}{chapter.4}{}}
\newlabel{src/Define_init:src.Define_init.Define_init}{{4}{11}{py : \_\_init\_\_}{section*.3}{}}
\@writefile{lol}{\contentsline {literalblock}{\numberline {1}{\ignorespaces Define\_init.py}}{11}{literalblock.1}\protected@file@percent }
\newlabel{src/Define_init:id1}{{1}{11}{\sphinxLiteralBlockLabel Define\_init.py}{literalblock.1}{}}
\@writefile{toc}{\contentsline {chapter}{\numberline {5}py : Function Definitions}{13}{chapter.5}\protected@file@percent }
\@writefile{lof}{\addvspace {10\p@ }}
\@writefile{lot}{\addvspace {10\p@ }}
\newlabel{src/Define_functions:module-src.Define_functions}{{5}{13}{py : Function Definitions}{chapter.5}{}}
\newlabel{src/Define_functions:py-function-definitions}{{5}{13}{py : Function Definitions}{chapter.5}{}}
\newlabel{src/Define_functions::doc}{{5}{13}{py : Function Definitions}{chapter.5}{}}
\newlabel{src/Define_functions:src.Define_functions.Define_functions}{{5}{13}{py : Function Definitions}{section*.4}{}}
\newlabel{src/Define_functions:src.Define_functions.Define_functions.assert_not_equal}{{5}{13}{py : Function Definitions}{section*.5}{}}
\newlabel{src/Define_functions:src.Define_functions.Define_functions.compare_A_or_B_results}{{5}{14}{py : Function Definitions}{section*.6}{}}
\newlabel{src/Define_functions:src.Define_functions.Define_functions.compare_false_result}{{5}{14}{py : Function Definitions}{section*.7}{}}
\newlabel{src/Define_functions:src.Define_functions.Define_functions.compare_greater_than_results}{{5}{14}{py : Function Definitions}{section*.8}{}}
\newlabel{src/Define_functions:src.Define_functions.Define_functions.compare_results}{{5}{14}{py : Function Definitions}{section*.9}{}}
\newlabel{src/Define_functions:src.Define_functions.Define_functions.compare_true_result}{{5}{14}{py : Function Definitions}{section*.10}{}}
\newlabel{src/Define_functions:src.Define_functions.Define_functions.findElementCSS}{{5}{15}{py : Function Definitions}{section*.11}{}}
\newlabel{src/Define_functions:src.Define_functions.Define_functions.findElementClass}{{5}{15}{py : Function Definitions}{section*.12}{}}
\newlabel{src/Define_functions:src.Define_functions.Define_functions.findElementId}{{5}{15}{py : Function Definitions}{section*.13}{}}
\newlabel{src/Define_functions:src.Define_functions.Define_functions.findElementXpath}{{5}{15}{py : Function Definitions}{section*.14}{}}
\newlabel{src/Define_functions:src.Define_functions.Define_functions.findElementsCSS}{{5}{15}{py : Function Definitions}{section*.15}{}}
\newlabel{src/Define_functions:src.Define_functions.Define_functions.findElementsClass}{{5}{15}{py : Function Definitions}{section*.16}{}}
\newlabel{src/Define_functions:src.Define_functions.Define_functions.findElementsXpath}{{5}{16}{py : Function Definitions}{section*.17}{}}
\newlabel{src/Define_functions:src.Define_functions.Define_functions.waitByClass}{{5}{16}{py : Function Definitions}{section*.18}{}}
\newlabel{src/Define_functions:src.Define_functions.Define_functions.waitByCss}{{5}{16}{py : Function Definitions}{section*.19}{}}
\newlabel{src/Define_functions:src.Define_functions.Define_functions.waitById}{{5}{16}{py : Function Definitions}{section*.20}{}}
\newlabel{src/Define_functions:src.Define_functions.Define_functions.waitByText}{{5}{16}{py : Function Definitions}{section*.21}{}}
\newlabel{src/Define_functions:src.Define_functions.Define_functions.waitByXpath}{{5}{16}{py : Function Definitions}{section*.22}{}}
\@writefile{toc}{\contentsline {chapter}{\numberline {6}py : General Functions}{19}{chapter.6}\protected@file@percent }
\@writefile{lof}{\addvspace {10\p@ }}
\@writefile{lot}{\addvspace {10\p@ }}
\newlabel{src/general_functions:module-src.General_functions}{{6}{19}{py : General Functions}{chapter.6}{}}
\newlabel{src/general_functions:py-general-functions}{{6}{19}{py : General Functions}{chapter.6}{}}
\newlabel{src/general_functions::doc}{{6}{19}{py : General Functions}{chapter.6}{}}
\newlabel{src/general_functions:src.General_functions.GeneralFunctions}{{6}{19}{py : General Functions}{section*.23}{}}
\newlabel{src/general_functions:src.General_functions.GeneralFunctions.Edit_text_box}{{6}{20}{py : General Functions}{section*.24}{}}
\newlabel{src/general_functions:src.General_functions.GeneralFunctions.check_internet}{{6}{20}{py : General Functions}{section*.25}{}}
\newlabel{src/general_functions:src.General_functions.GeneralFunctions.check_is_displayed}{{6}{20}{py : General Functions}{section*.26}{}}
\newlabel{src/general_functions:src.General_functions.GeneralFunctions.check_option_from_row_text}{{6}{21}{py : General Functions}{section*.27}{}}
\newlabel{src/general_functions:src.General_functions.GeneralFunctions.check_option_from_toggle_row_text}{{6}{21}{py : General Functions}{section*.28}{}}
\newlabel{src/general_functions:src.General_functions.GeneralFunctions.check_presence_of_element_from_text}{{6}{21}{py : General Functions}{section*.29}{}}
\newlabel{src/general_functions:src.General_functions.GeneralFunctions.check_presence_of_option_from_toggle_row_text}{{6}{21}{py : General Functions}{section*.30}{}}
\newlabel{src/general_functions:src.General_functions.GeneralFunctions.click_Delete_icon}{{6}{21}{py : General Functions}{section*.31}{}}
\newlabel{src/general_functions:src.General_functions.GeneralFunctions.click_Edit_icon}{{6}{21}{py : General Functions}{section*.32}{}}
\newlabel{src/general_functions:src.General_functions.GeneralFunctions.click_Edit_text}{{6}{22}{py : General Functions}{section*.33}{}}
\newlabel{src/general_functions:src.General_functions.GeneralFunctions.click_Edit_without_ripple_text}{{6}{22}{py : General Functions}{section*.34}{}}
\newlabel{src/general_functions:src.General_functions.GeneralFunctions.click_Fertig_without_ripple_text}{{6}{22}{py : General Functions}{section*.35}{}}
\newlabel{src/general_functions:src.General_functions.GeneralFunctions.click_X_icon}{{6}{22}{py : General Functions}{section*.36}{}}
\newlabel{src/general_functions:src.General_functions.GeneralFunctions.click_back_by_header_title}{{6}{22}{py : General Functions}{section*.37}{}}
\newlabel{src/general_functions:src.General_functions.GeneralFunctions.click_close_icon}{{6}{22}{py : General Functions}{section*.38}{}}
\newlabel{src/general_functions:src.General_functions.GeneralFunctions.click_close_icon_scroll_home}{{6}{23}{py : General Functions}{section*.39}{}}
\newlabel{src/general_functions:src.General_functions.GeneralFunctions.click_dropdown_by_title1}{{6}{23}{py : General Functions}{section*.40}{}}
\newlabel{src/general_functions:src.General_functions.GeneralFunctions.click_dropdown_by_title2}{{6}{23}{py : General Functions}{section*.41}{}}
\newlabel{src/general_functions:src.General_functions.GeneralFunctions.click_left_arrow}{{6}{23}{py : General Functions}{section*.42}{}}
\newlabel{src/general_functions:src.General_functions.GeneralFunctions.click_right_arrow}{{6}{23}{py : General Functions}{section*.43}{}}
\newlabel{src/general_functions:src.General_functions.GeneralFunctions.click_right_arrow_by_name}{{6}{23}{py : General Functions}{section*.44}{}}
\newlabel{src/general_functions:src.General_functions.GeneralFunctions.click_scrollable_area}{{6}{24}{py : General Functions}{section*.45}{}}
\newlabel{src/general_functions:src.General_functions.GeneralFunctions.click_text_area_by_name}{{6}{24}{py : General Functions}{section*.46}{}}
\newlabel{src/general_functions:src.General_functions.GeneralFunctions.close_error_popup}{{6}{24}{py : General Functions}{section*.47}{}}
\newlabel{src/general_functions:src.General_functions.GeneralFunctions.compare_count}{{6}{24}{py : General Functions}{section*.48}{}}
\newlabel{src/general_functions:src.General_functions.GeneralFunctions.count_tiles}{{6}{24}{py : General Functions}{section*.49}{}}
\newlabel{src/general_functions:src.General_functions.GeneralFunctions.dragOptions}{{6}{24}{py : General Functions}{section*.50}{}}
\newlabel{src/general_functions:src.General_functions.GeneralFunctions.get_UHI_values}{{6}{25}{py : General Functions}{section*.51}{}}
\newlabel{src/general_functions:src.General_functions.GeneralFunctions.get_click_from_text_area}{{6}{25}{py : General Functions}{section*.52}{}}
\newlabel{src/general_functions:src.General_functions.GeneralFunctions.get_click_from_toggle_row}{{6}{25}{py : General Functions}{section*.53}{}}
\newlabel{src/general_functions:src.General_functions.GeneralFunctions.get_rand_int}{{6}{25}{py : General Functions}{section*.54}{}}
\newlabel{src/general_functions:src.General_functions.GeneralFunctions.get_response_from_api}{{6}{25}{py : General Functions}{section*.55}{}}
\newlabel{src/general_functions:src.General_functions.GeneralFunctions.get_screen_saver_clock_status}{{6}{25}{py : General Functions}{section*.56}{}}
\newlabel{src/general_functions:src.General_functions.GeneralFunctions.get_size_of_elements}{{6}{25}{py : General Functions}{section*.57}{}}
\newlabel{src/general_functions:src.General_functions.GeneralFunctions.get_target_screen}{{6}{26}{py : General Functions}{section*.58}{}}
\newlabel{src/general_functions:src.General_functions.GeneralFunctions.get_text_from_element}{{6}{26}{py : General Functions}{section*.59}{}}
\newlabel{src/general_functions:src.General_functions.GeneralFunctions.get_text_from_row}{{6}{26}{py : General Functions}{section*.60}{}}
\newlabel{src/general_functions:src.General_functions.GeneralFunctions.get_text_from_spinbox}{{6}{26}{py : General Functions}{section*.61}{}}
\newlabel{src/general_functions:src.General_functions.GeneralFunctions.get_tile_text}{{6}{26}{py : General Functions}{section*.62}{}}
\newlabel{src/general_functions:src.General_functions.GeneralFunctions.get_today_from_ntp}{{6}{27}{py : General Functions}{section*.63}{}}
\newlabel{src/general_functions:src.General_functions.GeneralFunctions.get_toggle_button_status}{{6}{27}{py : General Functions}{section*.64}{}}
\newlabel{src/general_functions:src.General_functions.GeneralFunctions.initial_steps}{{6}{27}{py : General Functions}{section*.65}{}}
\newlabel{src/general_functions:src.General_functions.GeneralFunctions.set_date_time_via_up_down_arrow}{{6}{27}{py : General Functions}{section*.66}{}}
\newlabel{src/general_functions:src.General_functions.GeneralFunctions.set_temp_via_plus_minus_buttons}{{6}{28}{py : General Functions}{section*.67}{}}
\newlabel{src/general_functions:src.General_functions.GeneralFunctions.slide_haus_screen}{{6}{28}{py : General Functions}{section*.68}{}}
\newlabel{src/general_functions:src.General_functions.GeneralFunctions.status_tile}{{6}{28}{py : General Functions}{section*.69}{}}
\newlabel{src/general_functions:src.General_functions.GeneralFunctions.tapClock}{{6}{28}{py : General Functions}{section*.70}{}}
\newlabel{src/general_functions:src.General_functions.GeneralFunctions.tap_button}{{6}{28}{py : General Functions}{section*.71}{}}
\newlabel{src/general_functions:src.General_functions.GeneralFunctions.unlockServiceScreen}{{6}{28}{py : General Functions}{section*.72}{}}
\newlabel{src/general_functions:src.General_functions.GeneralFunctions.unlockUserScreen}{{6}{29}{py : General Functions}{section*.73}{}}
\newlabel{src/general_functions:src.General_functions.GeneralFunctions.unlock_P_screen}{{6}{29}{py : General Functions}{section*.74}{}}
\newlabel{src/general_functions:src.General_functions.GeneralFunctions.wait_browser}{{6}{29}{py : General Functions}{section*.75}{}}
\@writefile{toc}{\contentsline {chapter}{\numberline {7}py : Read Modbus Function}{31}{chapter.7}\protected@file@percent }
\@writefile{lof}{\addvspace {10\p@ }}
\@writefile{lot}{\addvspace {10\p@ }}
\newlabel{src/read_modbus:module-src.read_modbus}{{7}{31}{py : Read Modbus Function}{chapter.7}{}}
\newlabel{src/read_modbus:py-read-modbus-function}{{7}{31}{py : Read Modbus Function}{chapter.7}{}}
\newlabel{src/read_modbus::doc}{{7}{31}{py : Read Modbus Function}{chapter.7}{}}
\newlabel{src/read_modbus:src.read_modbus.ReadModbusTCP}{{7}{31}{py : Read Modbus Function}{section*.76}{}}
\newlabel{src/read_modbus:src.read_modbus.ReadModbusTCP.connect_tcp}{{7}{31}{py : Read Modbus Function}{section*.77}{}}
\newlabel{src/read_modbus:src.read_modbus.ReadModbusTCP.get_status_from_coils}{{7}{31}{py : Read Modbus Function}{section*.78}{}}
\newlabel{src/read_modbus:src.read_modbus.ReadModbusTCP.get_values_from_analog_registers}{{7}{31}{py : Read Modbus Function}{section*.79}{}}
\newlabel{src/read_modbus:src.read_modbus.ReadModbusTCP.get_values_from_integer_registers}{{7}{31}{py : Read Modbus Function}{section*.80}{}}
\newlabel{src/read_modbus:src.read_modbus.ReadModbusTCP.read_analog_registers}{{7}{32}{py : Read Modbus Function}{section*.81}{}}
\newlabel{src/read_modbus:src.read_modbus.ReadModbusTCP.read_digital}{{7}{32}{py : Read Modbus Function}{section*.82}{}}
\newlabel{src/read_modbus:src.read_modbus.ReadModbusTCP.read_integer_registers}{{7}{32}{py : Read Modbus Function}{section*.83}{}}
\@writefile{toc}{\contentsline {chapter}{\numberline {8}py : W\IeC {\"a}rmepumpe Config}{33}{chapter.8}\protected@file@percent }
\@writefile{lof}{\addvspace {10\p@ }}
\@writefile{lot}{\addvspace {10\p@ }}
\newlabel{src/WPM_config:module-src.WPM_config}{{8}{33}{py : Wärmepumpe Config}{chapter.8}{}}
\newlabel{src/WPM_config:py-warmepumpe-config}{{8}{33}{py : Wärmepumpe Config}{chapter.8}{}}
\newlabel{src/WPM_config::doc}{{8}{33}{py : Wärmepumpe Config}{chapter.8}{}}
\newlabel{src/WPM_config:src.WPM_config.WPMconfig}{{8}{33}{py : Wärmepumpe Config}{section*.84}{}}
\newlabel{src/WPM_config:src.WPM_config.WPMconfig.Betriebsweise}{{8}{33}{py : Wärmepumpe Config}{section*.85}{}}
\newlabel{src/WPM_config:src.WPM_config.WPMconfig.KuehlAktiv}{{8}{33}{py : Wärmepumpe Config}{section*.86}{}}
\newlabel{src/WPM_config:src.WPM_config.WPMconfig.KuehlPassiv}{{8}{33}{py : Wärmepumpe Config}{section*.87}{}}
\newlabel{src/WPM_config:src.WPM_config.WPMconfig.Kuehlen_in_HK}{{8}{33}{py : Wärmepumpe Config}{section*.88}{}}
\newlabel{src/WPM_config:src.WPM_config.WPMconfig.P_SW}{{8}{33}{py : Wärmepumpe Config}{section*.89}{}}
\newlabel{src/WPM_config:src.WPM_config.WPMconfig.P_WW}{{8}{33}{py : Wärmepumpe Config}{section*.90}{}}
\newlabel{src/WPM_config:src.WPM_config.WPMconfig.get_Ww_Zirkulation_status}{{8}{33}{py : Wärmepumpe Config}{section*.91}{}}
\newlabel{src/WPM_config:src.WPM_config.WPMconfig.is_HK1_AussenTemp}{{8}{33}{py : Wärmepumpe Config}{section*.92}{}}
\newlabel{src/WPM_config:src.WPM_config.WPMconfig.is_HK1_Festwert}{{8}{33}{py : Wärmepumpe Config}{section*.93}{}}
\newlabel{src/WPM_config:src.WPM_config.WPMconfig.is_HK1_RTC}{{8}{33}{py : Wärmepumpe Config}{section*.94}{}}
\newlabel{src/WPM_config:src.WPM_config.WPMconfig.is_HK2_AussenTemp}{{8}{34}{py : Wärmepumpe Config}{section*.95}{}}
\newlabel{src/WPM_config:src.WPM_config.WPMconfig.is_HK2_Festwert}{{8}{34}{py : Wärmepumpe Config}{section*.96}{}}
\newlabel{src/WPM_config:src.WPM_config.WPMconfig.is_HK2_RTC}{{8}{34}{py : Wärmepumpe Config}{section*.97}{}}
\newlabel{src/WPM_config:src.WPM_config.WPMconfig.is_Ww_true}{{8}{34}{py : Wärmepumpe Config}{section*.98}{}}
\newlabel{src/WPM_config:src.WPM_config.WPMconfig.is_any_AussenTemp}{{8}{34}{py : Wärmepumpe Config}{section*.99}{}}
\newlabel{src/WPM_config:src.WPM_config.WPMconfig.is_any_Festwert}{{8}{34}{py : Wärmepumpe Config}{section*.100}{}}
\newlabel{src/WPM_config:src.WPM_config.WPMconfig.is_any_RTC}{{8}{34}{py : Wärmepumpe Config}{section*.101}{}}
\@writefile{toc}{\contentsline {chapter}{\numberline {9}py : Profile Functions}{35}{chapter.9}\protected@file@percent }
\@writefile{lof}{\addvspace {10\p@ }}
\@writefile{lot}{\addvspace {10\p@ }}
\newlabel{Profile_functions/Profile_general_functions:module-Profile_functions.Profile_general_functions}{{9}{35}{py : Profile Functions}{chapter.9}{}}
\newlabel{Profile_functions/Profile_general_functions:py-profile-functions}{{9}{35}{py : Profile Functions}{chapter.9}{}}
\newlabel{Profile_functions/Profile_general_functions::doc}{{9}{35}{py : Profile Functions}{chapter.9}{}}
\newlabel{Profile_functions/Profile_general_functions:Profile_functions.Profile_general_functions.ProfileGeneralFunctions}{{9}{35}{py : Profile Functions}{section*.102}{}}
\newlabel{Profile_functions/Profile_general_functions:Profile_functions.Profile_general_functions.ProfileGeneralFunctions.Edit_Heizkreise_name}{{9}{35}{py : Profile Functions}{section*.103}{}}
\newlabel{Profile_functions/Profile_general_functions:Profile_functions.Profile_general_functions.ProfileGeneralFunctions.Edit_Raumregeler_name}{{9}{35}{py : Profile Functions}{section*.104}{}}
\newlabel{Profile_functions/Profile_general_functions:Profile_functions.Profile_general_functions.ProfileGeneralFunctions.action_slider}{{9}{35}{py : Profile Functions}{section*.105}{}}
\newlabel{Profile_functions/Profile_general_functions:Profile_functions.Profile_general_functions.ProfileGeneralFunctions.change_temp_slider_values}{{9}{35}{py : Profile Functions}{section*.106}{}}
\newlabel{Profile_functions/Profile_general_functions:Profile_functions.Profile_general_functions.ProfileGeneralFunctions.change_time_bars_inside_profile}{{9}{36}{py : Profile Functions}{section*.107}{}}
\newlabel{Profile_functions/Profile_general_functions:Profile_functions.Profile_general_functions.ProfileGeneralFunctions.check_if_profile_exists_with_same_name}{{9}{36}{py : Profile Functions}{section*.108}{}}
\newlabel{Profile_functions/Profile_general_functions:Profile_functions.Profile_general_functions.ProfileGeneralFunctions.check_if_profile_only_one_with_same_name}{{9}{36}{py : Profile Functions}{section*.109}{}}
\newlabel{Profile_functions/Profile_general_functions:Profile_functions.Profile_general_functions.ProfileGeneralFunctions.check_screen}{{9}{36}{py : Profile Functions}{section*.110}{}}
\newlabel{Profile_functions/Profile_general_functions:Profile_functions.Profile_general_functions.ProfileGeneralFunctions.choose_Thermische_days}{{9}{36}{py : Profile Functions}{section*.111}{}}
\newlabel{Profile_functions/Profile_general_functions:Profile_functions.Profile_general_functions.ProfileGeneralFunctions.choose_days}{{9}{37}{py : Profile Functions}{section*.112}{}}
\newlabel{Profile_functions/Profile_general_functions:Profile_functions.Profile_general_functions.ProfileGeneralFunctions.click_Thermische_box}{{9}{37}{py : Profile Functions}{section*.113}{}}
\newlabel{Profile_functions/Profile_general_functions:Profile_functions.Profile_general_functions.ProfileGeneralFunctions.click_down_triangle}{{9}{37}{py : Profile Functions}{section*.114}{}}
\newlabel{Profile_functions/Profile_general_functions:Profile_functions.Profile_general_functions.ProfileGeneralFunctions.click_less_option_button}{{9}{37}{py : Profile Functions}{section*.115}{}}
\newlabel{Profile_functions/Profile_general_functions:Profile_functions.Profile_general_functions.ProfileGeneralFunctions.click_right_arrow}{{9}{37}{py : Profile Functions}{section*.116}{}}
\newlabel{Profile_functions/Profile_general_functions:Profile_functions.Profile_general_functions.ProfileGeneralFunctions.creat_profile_for_testing_Home_screen}{{9}{37}{py : Profile Functions}{section*.117}{}}
\newlabel{Profile_functions/Profile_general_functions:Profile_functions.Profile_general_functions.ProfileGeneralFunctions.create_profile}{{9}{37}{py : Profile Functions}{section*.118}{}}
\newlabel{Profile_functions/Profile_general_functions:Profile_functions.Profile_general_functions.ProfileGeneralFunctions.create_profile_Home_screen}{{9}{38}{py : Profile Functions}{section*.119}{}}
\newlabel{Profile_functions/Profile_general_functions:Profile_functions.Profile_general_functions.ProfileGeneralFunctions.days_int_to_str}{{9}{38}{py : Profile Functions}{section*.120}{}}
\newlabel{Profile_functions/Profile_general_functions:Profile_functions.Profile_general_functions.ProfileGeneralFunctions.failed_choose_Thermische_days}{{9}{38}{py : Profile Functions}{section*.121}{}}
\newlabel{Profile_functions/Profile_general_functions:Profile_functions.Profile_general_functions.ProfileGeneralFunctions.get_Festwert_Ref_temp_from_WPM}{{9}{38}{py : Profile Functions}{section*.122}{}}
\newlabel{Profile_functions/Profile_general_functions:Profile_functions.Profile_general_functions.ProfileGeneralFunctions.get_Heizkreis_Ist_temp_from_WPM}{{9}{38}{py : Profile Functions}{section*.123}{}}
\newlabel{Profile_functions/Profile_general_functions:Profile_functions.Profile_general_functions.ProfileGeneralFunctions.get_Heizkreis_Soll_temp_from_WPM}{{9}{38}{py : Profile Functions}{section*.124}{}}
\newlabel{Profile_functions/Profile_general_functions:Profile_functions.Profile_general_functions.ProfileGeneralFunctions.get_Heizkreis_mode_from_WPM}{{9}{38}{py : Profile Functions}{section*.125}{}}
\newlabel{Profile_functions/Profile_general_functions:Profile_functions.Profile_general_functions.ProfileGeneralFunctions.get_Heizkreis_profil_times_from_WPM}{{9}{38}{py : Profile Functions}{section*.126}{}}
\newlabel{Profile_functions/Profile_general_functions:Profile_functions.Profile_general_functions.ProfileGeneralFunctions.get_Heizkreis_run_days_from_WPM}{{9}{39}{py : Profile Functions}{section*.127}{}}
\newlabel{Profile_functions/Profile_general_functions:Profile_functions.Profile_general_functions.ProfileGeneralFunctions.get_Heizkurve_value_from_WPM}{{9}{39}{py : Profile Functions}{section*.128}{}}
\newlabel{Profile_functions/Profile_general_functions:Profile_functions.Profile_general_functions.ProfileGeneralFunctions.get_Raumregulung_screen_count}{{9}{39}{py : Profile Functions}{section*.129}{}}
\newlabel{Profile_functions/Profile_general_functions:Profile_functions.Profile_general_functions.ProfileGeneralFunctions.get_Thermische_values_from_variable}{{9}{39}{py : Profile Functions}{section*.130}{}}
\newlabel{Profile_functions/Profile_general_functions:Profile_functions.Profile_general_functions.ProfileGeneralFunctions.get_screen_name}{{9}{39}{py : Profile Functions}{section*.131}{}}
\newlabel{Profile_functions/Profile_general_functions:Profile_functions.Profile_general_functions.ProfileGeneralFunctions.get_temp_from_bars}{{9}{39}{py : Profile Functions}{section*.132}{}}
\newlabel{Profile_functions/Profile_general_functions:Profile_functions.Profile_general_functions.ProfileGeneralFunctions.get_time_intervals_from_UHI}{{9}{40}{py : Profile Functions}{section*.133}{}}
\newlabel{Profile_functions/Profile_general_functions:Profile_functions.Profile_general_functions.ProfileGeneralFunctions.get_total_profiles_count}{{9}{40}{py : Profile Functions}{section*.134}{}}
\newlabel{Profile_functions/Profile_general_functions:Profile_functions.Profile_general_functions.ProfileGeneralFunctions.get_values_from_variable}{{9}{40}{py : Profile Functions}{section*.135}{}}
\newlabel{Profile_functions/Profile_general_functions:Profile_functions.Profile_general_functions.ProfileGeneralFunctions.is_any_HK_profile_active}{{9}{40}{py : Profile Functions}{section*.136}{}}
\newlabel{Profile_functions/Profile_general_functions:Profile_functions.Profile_general_functions.ProfileGeneralFunctions.is_profile_valid}{{9}{40}{py : Profile Functions}{section*.137}{}}
\newlabel{Profile_functions/Profile_general_functions:Profile_functions.Profile_general_functions.ProfileGeneralFunctions.read_Ist_value}{{9}{40}{py : Profile Functions}{section*.138}{}}
\newlabel{Profile_functions/Profile_general_functions:Profile_functions.Profile_general_functions.ProfileGeneralFunctions.read_Soll_value}{{9}{41}{py : Profile Functions}{section*.139}{}}
\newlabel{Profile_functions/Profile_general_functions:Profile_functions.Profile_general_functions.ProfileGeneralFunctions.read_humidity_value}{{9}{41}{py : Profile Functions}{section*.140}{}}
\newlabel{Profile_functions/Profile_general_functions:Profile_functions.Profile_general_functions.ProfileGeneralFunctions.read_temp_from_horizontal_slider}{{9}{41}{py : Profile Functions}{section*.141}{}}
\newlabel{Profile_functions/Profile_general_functions:Profile_functions.Profile_general_functions.ProfileGeneralFunctions.rename_HK_and_RTC}{{9}{41}{py : Profile Functions}{section*.142}{}}
\newlabel{Profile_functions/Profile_general_functions:Profile_functions.Profile_general_functions.ProfileGeneralFunctions.select_Days_Wochenvorlauf}{{9}{41}{py : Profile Functions}{section*.143}{}}
\newlabel{Profile_functions/Profile_general_functions:Profile_functions.Profile_general_functions.ProfileGeneralFunctions.select_RTC_Schnellheizen}{{9}{41}{py : Profile Functions}{section*.144}{}}
\newlabel{Profile_functions/Profile_general_functions:Profile_functions.Profile_general_functions.ProfileGeneralFunctions.select_Wochenvorlauf_TherDes}{{9}{42}{py : Profile Functions}{section*.145}{}}
\newlabel{Profile_functions/Profile_general_functions:Profile_functions.Profile_general_functions.ProfileGeneralFunctions.select_Zeit1_Wochenvorlauf}{{9}{42}{py : Profile Functions}{section*.146}{}}
\newlabel{Profile_functions/Profile_general_functions:Profile_functions.Profile_general_functions.ProfileGeneralFunctions.select_Zeit2_Wochenvorlauf}{{9}{42}{py : Profile Functions}{section*.147}{}}
\newlabel{Profile_functions/Profile_general_functions:Profile_functions.Profile_general_functions.ProfileGeneralFunctions.select_created_profile}{{9}{42}{py : Profile Functions}{section*.148}{}}
\newlabel{Profile_functions/Profile_general_functions:Profile_functions.Profile_general_functions.ProfileGeneralFunctions.set_temp_slider}{{9}{42}{py : Profile Functions}{section*.149}{}}
\newlabel{Profile_functions/Profile_general_functions:Profile_functions.Profile_general_functions.ProfileGeneralFunctions.set_temp_slider_inside_profile}{{9}{42}{py : Profile Functions}{section*.150}{}}
\newlabel{Profile_functions/Profile_general_functions:Profile_functions.Profile_general_functions.ProfileGeneralFunctions.set_temp_via_bars}{{9}{42}{py : Profile Functions}{section*.151}{}}
\newlabel{Profile_functions/Profile_general_functions:Profile_functions.Profile_general_functions.ProfileGeneralFunctions.setup_Raumregeler_profile}{{9}{43}{py : Profile Functions}{section*.152}{}}
\newlabel{Profile_functions/Profile_general_functions:Profile_functions.Profile_general_functions.ProfileGeneralFunctions.setup_Ww_profile}{{9}{43}{py : Profile Functions}{section*.153}{}}
\newlabel{Profile_functions/Profile_general_functions:Profile_functions.Profile_general_functions.ProfileGeneralFunctions.setup_and_verify_Heizkreise_profile}{{9}{43}{py : Profile Functions}{section*.154}{}}
\newlabel{Profile_functions/Profile_general_functions:Profile_functions.Profile_general_functions.ProfileGeneralFunctions.special_profile_steps}{{9}{43}{py : Profile Functions}{section*.155}{}}
\newlabel{Profile_functions/Profile_general_functions:Profile_functions.Profile_general_functions.ProfileGeneralFunctions.steps_to_create_profile}{{9}{43}{py : Profile Functions}{section*.156}{}}
\newlabel{Profile_functions/Profile_general_functions:Profile_functions.Profile_general_functions.ProfileGeneralFunctions.time_UHI}{{9}{43}{py : Profile Functions}{section*.157}{}}
\newlabel{Profile_functions/Profile_general_functions:Profile_functions.Profile_general_functions.ProfileGeneralFunctions.verify_Heizkreis_profile_times_with_WPM}{{9}{44}{py : Profile Functions}{section*.158}{}}
\newlabel{Profile_functions/Profile_general_functions:Profile_functions.Profile_general_functions.ProfileGeneralFunctions.verify_Profil_temp_in_days_screen}{{9}{44}{py : Profile Functions}{section*.159}{}}
\newlabel{Profile_functions/Profile_general_functions:Profile_functions.Profile_general_functions.ProfileGeneralFunctions.verify_Raumregeler_profile}{{9}{44}{py : Profile Functions}{section*.160}{}}
\newlabel{Profile_functions/Profile_general_functions:Profile_functions.Profile_general_functions.ProfileGeneralFunctions.verify_Refernz_temp_in_days_screen}{{9}{44}{py : Profile Functions}{section*.161}{}}
\newlabel{Profile_functions/Profile_general_functions:Profile_functions.Profile_general_functions.ProfileGeneralFunctions.verify_Thermische_intervals_with_WPM}{{9}{44}{py : Profile Functions}{section*.162}{}}
\newlabel{Profile_functions/Profile_general_functions:Profile_functions.Profile_general_functions.ProfileGeneralFunctions.verify_Ww_profile}{{9}{44}{py : Profile Functions}{section*.163}{}}
\newlabel{Profile_functions/Profile_general_functions:Profile_functions.Profile_general_functions.ProfileGeneralFunctions.verify_intervals_with_WPM}{{9}{45}{py : Profile Functions}{section*.164}{}}
\newlabel{Profile_functions/Profile_general_functions:Profile_functions.Profile_general_functions.ProfileGeneralFunctions.verify_profile_times}{{9}{45}{py : Profile Functions}{section*.165}{}}
\newlabel{Profile_functions/Profile_general_functions:Profile_functions.Profile_general_functions.ProfileGeneralFunctions.verify_scale_is_displayed}{{9}{45}{py : Profile Functions}{section*.166}{}}
\newlabel{Profile_functions/Profile_general_functions:Profile_functions.Profile_general_functions.ProfileGeneralFunctions.verify_text_from_element_row}{{9}{45}{py : Profile Functions}{section*.167}{}}
\newlabel{Profile_functions/Profile_general_functions:Profile_functions.Profile_general_functions.ProfileGeneralFunctions.verify_title_of_screen}{{9}{45}{py : Profile Functions}{section*.168}{}}
\newlabel{Profile_functions/Profile_general_functions:Profile_functions.Profile_general_functions.ProfileGeneralFunctions.verify_toggle_is_ON}{{9}{46}{py : Profile Functions}{section*.169}{}}
\newlabel{Profile_functions/Profile_general_functions:Profile_functions.Profile_general_functions.ProfileGeneralFunctions.verify_triangle_is_displayed}{{9}{46}{py : Profile Functions}{section*.170}{}}
\newlabel{Profile_functions/Profile_general_functions:Profile_functions.Profile_general_functions.ProfileGeneralFunctions.zeit_end_1}{{9}{46}{py : Profile Functions}{section*.171}{}}
\newlabel{Profile_functions/Profile_general_functions:Profile_functions.Profile_general_functions.ProfileGeneralFunctions.zeit_end_2}{{9}{46}{py : Profile Functions}{section*.172}{}}
\newlabel{Profile_functions/Profile_general_functions:Profile_functions.Profile_general_functions.ProfileGeneralFunctions.zeit_start_1}{{9}{46}{py : Profile Functions}{section*.173}{}}
\newlabel{Profile_functions/Profile_general_functions:Profile_functions.Profile_general_functions.ProfileGeneralFunctions.zeit_start_2}{{9}{46}{py : Profile Functions}{section*.174}{}}
\@writefile{toc}{\contentsline {section}{\numberline {9.1}py : Aussentemperatur Settings}{47}{section.9.1}\protected@file@percent }
\newlabel{Profile_functions/aussentemp_setting:module-Profile_functions.aussentemp_setting}{{9.1}{47}{py : Aussentemperatur Settings}{section.9.1}{}}
\newlabel{Profile_functions/aussentemp_setting:py-aussentemperatur-settings}{{9.1}{47}{py : Aussentemperatur Settings}{section.9.1}{}}
\newlabel{Profile_functions/aussentemp_setting::doc}{{9.1}{47}{py : Aussentemperatur Settings}{section.9.1}{}}
\newlabel{Profile_functions/aussentemp_setting:Profile_functions.aussentemp_setting.AussenTempSettings}{{9.1}{47}{py : Aussentemperatur Settings}{section*.175}{}}
\newlabel{Profile_functions/aussentemp_setting:Profile_functions.aussentemp_setting.AussenTempSettings.choose_Heizkurve_days}{{9.1}{47}{py : Aussentemperatur Settings}{section*.176}{}}
\newlabel{Profile_functions/aussentemp_setting:Profile_functions.aussentemp_setting.AussenTempSettings.expected_screen_name}{{9.1}{47}{py : Aussentemperatur Settings}{section*.177}{}}
\newlabel{Profile_functions/aussentemp_setting:Profile_functions.aussentemp_setting.AussenTempSettings.set_Soll_temp}{{9.1}{47}{py : Aussentemperatur Settings}{section*.178}{}}
\newlabel{Profile_functions/aussentemp_setting:Profile_functions.aussentemp_setting.AussenTempSettings.setup_Heizkurve_values}{{9.1}{47}{py : Aussentemperatur Settings}{section*.179}{}}
\newlabel{Profile_functions/aussentemp_setting:Profile_functions.aussentemp_setting.AussenTempSettings.verify_Heizkurve_run_days}{{9.1}{47}{py : Aussentemperatur Settings}{section*.180}{}}
\newlabel{Profile_functions/aussentemp_setting:Profile_functions.aussentemp_setting.AussenTempSettings.verify_Heizkurve_screens}{{9.1}{48}{py : Aussentemperatur Settings}{section*.181}{}}
\@writefile{toc}{\contentsline {section}{\numberline {9.2}py : Festwert Settings}{48}{section.9.2}\protected@file@percent }
\newlabel{Profile_functions/festwert_setting:module-Profile_functions.festwert_setting}{{9.2}{48}{py : Festwert Settings}{section.9.2}{}}
\newlabel{Profile_functions/festwert_setting:py-festwert-settings}{{9.2}{48}{py : Festwert Settings}{section.9.2}{}}
\newlabel{Profile_functions/festwert_setting::doc}{{9.2}{48}{py : Festwert Settings}{section.9.2}{}}
\newlabel{Profile_functions/festwert_setting:Profile_functions.festwert_setting.FestwertSettings}{{9.2}{48}{py : Festwert Settings}{section*.182}{}}
\newlabel{Profile_functions/festwert_setting:Profile_functions.festwert_setting.FestwertSettings.choose_Festwert_days}{{9.2}{48}{py : Festwert Settings}{section*.183}{}}
\newlabel{Profile_functions/festwert_setting:Profile_functions.festwert_setting.FestwertSettings.expected_screen_name}{{9.2}{48}{py : Festwert Settings}{section*.184}{}}
\newlabel{Profile_functions/festwert_setting:Profile_functions.festwert_setting.FestwertSettings.set_Soll_temp}{{9.2}{48}{py : Festwert Settings}{section*.185}{}}
\newlabel{Profile_functions/festwert_setting:Profile_functions.festwert_setting.FestwertSettings.setup_Festwert_values}{{9.2}{48}{py : Festwert Settings}{section*.186}{}}
\newlabel{Profile_functions/festwert_setting:Profile_functions.festwert_setting.FestwertSettings.verify_Festwert_run_days}{{9.2}{48}{py : Festwert Settings}{section*.187}{}}
\newlabel{Profile_functions/festwert_setting:Profile_functions.festwert_setting.FestwertSettings.verify_Festwert_screens}{{9.2}{49}{py : Festwert Settings}{section*.188}{}}
\@writefile{toc}{\contentsline {section}{\numberline {9.3}py : Ramregeler Settings}{49}{section.9.3}\protected@file@percent }
\newlabel{Profile_functions/raumregler_setting:module-Profile_functions.raumregler_setting}{{9.3}{49}{py : Ramregeler Settings}{section.9.3}{}}
\newlabel{Profile_functions/raumregler_setting:py-ramregeler-settings}{{9.3}{49}{py : Ramregeler Settings}{section.9.3}{}}
\newlabel{Profile_functions/raumregler_setting::doc}{{9.3}{49}{py : Ramregeler Settings}{section.9.3}{}}
\newlabel{Profile_functions/raumregler_setting:Profile_functions.raumregler_setting.RaumreglerSettings}{{9.3}{49}{py : Ramregeler Settings}{section*.189}{}}
\newlabel{Profile_functions/raumregler_setting:Profile_functions.raumregler_setting.RaumreglerSettings.choose_Raumregler_days}{{9.3}{49}{py : Ramregeler Settings}{section*.190}{}}
\newlabel{Profile_functions/raumregler_setting:Profile_functions.raumregler_setting.RaumreglerSettings.expected_screen_name}{{9.3}{49}{py : Ramregeler Settings}{section*.191}{}}
\newlabel{Profile_functions/raumregler_setting:Profile_functions.raumregler_setting.RaumreglerSettings.get_Communication_status_from_WPM}{{9.3}{49}{py : Ramregeler Settings}{section*.192}{}}
\newlabel{Profile_functions/raumregler_setting:Profile_functions.raumregler_setting.RaumreglerSettings.get_Fenster_status_from_WPM}{{9.3}{49}{py : Ramregeler Settings}{section*.193}{}}
\newlabel{Profile_functions/raumregler_setting:Profile_functions.raumregler_setting.RaumreglerSettings.get_Ist_temp_from_WPM}{{9.3}{50}{py : Ramregeler Settings}{section*.194}{}}
\newlabel{Profile_functions/raumregler_setting:Profile_functions.raumregler_setting.RaumreglerSettings.get_Profile_temp_from_WPM}{{9.3}{50}{py : Ramregeler Settings}{section*.195}{}}
\newlabel{Profile_functions/raumregler_setting:Profile_functions.raumregler_setting.RaumreglerSettings.get_Raumregler_run_days_from_WPM}{{9.3}{50}{py : Ramregeler Settings}{section*.196}{}}
\newlabel{Profile_functions/raumregler_setting:Profile_functions.raumregler_setting.RaumreglerSettings.get_Soll_temp_from_WPM}{{9.3}{50}{py : Ramregeler Settings}{section*.197}{}}
\newlabel{Profile_functions/raumregler_setting:Profile_functions.raumregler_setting.RaumreglerSettings.get_Ventilstellung_from_WPM}{{9.3}{50}{py : Ramregeler Settings}{section*.198}{}}
\newlabel{Profile_functions/raumregler_setting:Profile_functions.raumregler_setting.RaumreglerSettings.get_humidity_from_WPM}{{9.3}{50}{py : Ramregeler Settings}{section*.199}{}}
\newlabel{Profile_functions/raumregler_setting:Profile_functions.raumregler_setting.RaumreglerSettings.get_profile_times_from_WPM}{{9.3}{50}{py : Ramregeler Settings}{section*.200}{}}
\newlabel{Profile_functions/raumregler_setting:Profile_functions.raumregler_setting.RaumreglerSettings.set_soll_temp_in_UHI}{{9.3}{51}{py : Ramregeler Settings}{section*.201}{}}
\newlabel{Profile_functions/raumregler_setting:Profile_functions.raumregler_setting.RaumreglerSettings.setup_Raumregler_Soll_temp}{{9.3}{51}{py : Ramregeler Settings}{section*.202}{}}
\newlabel{Profile_functions/raumregler_setting:Profile_functions.raumregler_setting.RaumreglerSettings.setup_Raumregler_run_days}{{9.3}{51}{py : Ramregeler Settings}{section*.203}{}}
\newlabel{Profile_functions/raumregler_setting:Profile_functions.raumregler_setting.RaumreglerSettings.verify_Raumregler_run_days}{{9.3}{51}{py : Ramregeler Settings}{section*.204}{}}
\newlabel{Profile_functions/raumregler_setting:Profile_functions.raumregler_setting.RaumreglerSettings.verify_Raumregler_run_days_steps}{{9.3}{51}{py : Ramregeler Settings}{section*.205}{}}
\newlabel{Profile_functions/raumregler_setting:Profile_functions.raumregler_setting.RaumreglerSettings.verify_Raumregler_temps_in_days_screen}{{9.3}{52}{py : Ramregeler Settings}{section*.206}{}}
\newlabel{Profile_functions/raumregler_setting:Profile_functions.raumregler_setting.RaumreglerSettings.verify_Room_profile_times_with_WPM}{{9.3}{52}{py : Ramregeler Settings}{section*.207}{}}
\newlabel{Profile_functions/raumregler_setting:Profile_functions.raumregler_setting.RaumreglerSettings.verify_screen_count}{{9.3}{52}{py : Ramregeler Settings}{section*.208}{}}
\@writefile{toc}{\contentsline {section}{\numberline {9.4}py : Warmwasser Settings}{52}{section.9.4}\protected@file@percent }
\newlabel{Profile_functions/warmwasser_setting:module-Profile_functions.warmwasser_setting}{{9.4}{52}{py : Warmwasser Settings}{section.9.4}{}}
\newlabel{Profile_functions/warmwasser_setting:py-warmwasser-settings}{{9.4}{52}{py : Warmwasser Settings}{section.9.4}{}}
\newlabel{Profile_functions/warmwasser_setting::doc}{{9.4}{52}{py : Warmwasser Settings}{section.9.4}{}}
\newlabel{Profile_functions/warmwasser_setting:Profile_functions.warmwasser_setting.WarmwasserSetting}{{9.4}{52}{py : Warmwasser Settings}{section*.209}{}}
\newlabel{Profile_functions/warmwasser_setting:Profile_functions.warmwasser_setting.WarmwasserSetting.Reset_WW_Max_temp}{{9.4}{52}{py : Warmwasser Settings}{section*.210}{}}
\newlabel{Profile_functions/warmwasser_setting:Profile_functions.warmwasser_setting.WarmwasserSetting.check_Reset_Max_WWTemp_button}{{9.4}{52}{py : Warmwasser Settings}{section*.211}{}}
\newlabel{Profile_functions/warmwasser_setting:Profile_functions.warmwasser_setting.WarmwasserSetting.check_WwSperre_screen}{{9.4}{52}{py : Warmwasser Settings}{section*.212}{}}
\newlabel{Profile_functions/warmwasser_setting:Profile_functions.warmwasser_setting.WarmwasserSetting.choose_WwSperre_days}{{9.4}{52}{py : Warmwasser Settings}{section*.213}{}}
\newlabel{Profile_functions/warmwasser_setting:Profile_functions.warmwasser_setting.WarmwasserSetting.choose_WwTherDes_days}{{9.4}{53}{py : Warmwasser Settings}{section*.214}{}}
\newlabel{Profile_functions/warmwasser_setting:Profile_functions.warmwasser_setting.WarmwasserSetting.choose_Zirkulation_days}{{9.4}{53}{py : Warmwasser Settings}{section*.215}{}}
\newlabel{Profile_functions/warmwasser_setting:Profile_functions.warmwasser_setting.WarmwasserSetting.expected_screen_name}{{9.4}{53}{py : Warmwasser Settings}{section*.216}{}}
\newlabel{Profile_functions/warmwasser_setting:Profile_functions.warmwasser_setting.WarmwasserSetting.get_WwSperre_days_from_WPM}{{9.4}{53}{py : Warmwasser Settings}{section*.217}{}}
\newlabel{Profile_functions/warmwasser_setting:Profile_functions.warmwasser_setting.WarmwasserSetting.get_WwSperre_min_temp_from_WPM}{{9.4}{53}{py : Warmwasser Settings}{section*.218}{}}
\newlabel{Profile_functions/warmwasser_setting:Profile_functions.warmwasser_setting.WarmwasserSetting.get_WwSperre_profile_times_from_WPM}{{9.4}{53}{py : Warmwasser Settings}{section*.219}{}}
\newlabel{Profile_functions/warmwasser_setting:Profile_functions.warmwasser_setting.WarmwasserSetting.get_WwTherDes_Soll_temp_from_WPM}{{9.4}{53}{py : Warmwasser Settings}{section*.220}{}}
\newlabel{Profile_functions/warmwasser_setting:Profile_functions.warmwasser_setting.WarmwasserSetting.get_WwTherDes_days_from_WPM}{{9.4}{53}{py : Warmwasser Settings}{section*.221}{}}
\newlabel{Profile_functions/warmwasser_setting:Profile_functions.warmwasser_setting.WarmwasserSetting.get_Ww_Ist_temp_from_WPM}{{9.4}{53}{py : Warmwasser Settings}{section*.222}{}}
\newlabel{Profile_functions/warmwasser_setting:Profile_functions.warmwasser_setting.WarmwasserSetting.get_Ww_Soll_Anz_temp_from_WPM}{{9.4}{54}{py : Warmwasser Settings}{section*.223}{}}
\newlabel{Profile_functions/warmwasser_setting:Profile_functions.warmwasser_setting.WarmwasserSetting.get_Ww_Soll_temp_from_WPM}{{9.4}{54}{py : Warmwasser Settings}{section*.224}{}}
\newlabel{Profile_functions/warmwasser_setting:Profile_functions.warmwasser_setting.WarmwasserSetting.get_Zirkulation_days_from_WPM}{{9.4}{54}{py : Warmwasser Settings}{section*.225}{}}
\newlabel{Profile_functions/warmwasser_setting:Profile_functions.warmwasser_setting.WarmwasserSetting.get_Zirkulation_times_from_WPM}{{9.4}{54}{py : Warmwasser Settings}{section*.226}{}}
\newlabel{Profile_functions/warmwasser_setting:Profile_functions.warmwasser_setting.WarmwasserSetting.set_WW_Soll_temp_in_UHI}{{9.4}{54}{py : Warmwasser Settings}{section*.227}{}}
\newlabel{Profile_functions/warmwasser_setting:Profile_functions.warmwasser_setting.WarmwasserSetting.verify_Reset_WW_Max_temp_with_WPM}{{9.4}{54}{py : Warmwasser Settings}{section*.228}{}}
\newlabel{Profile_functions/warmwasser_setting:Profile_functions.warmwasser_setting.WarmwasserSetting.verify_WwSperre_days}{{9.4}{54}{py : Warmwasser Settings}{section*.229}{}}
\newlabel{Profile_functions/warmwasser_setting:Profile_functions.warmwasser_setting.WarmwasserSetting.verify_WwSperre_temps_in_days_screen}{{9.4}{54}{py : Warmwasser Settings}{section*.230}{}}
\newlabel{Profile_functions/warmwasser_setting:Profile_functions.warmwasser_setting.WarmwasserSetting.verify_WwSperre_times}{{9.4}{54}{py : Warmwasser Settings}{section*.231}{}}
\newlabel{Profile_functions/warmwasser_setting:Profile_functions.warmwasser_setting.WarmwasserSetting.verify_WwTherDes_days}{{9.4}{55}{py : Warmwasser Settings}{section*.232}{}}
\newlabel{Profile_functions/warmwasser_setting:Profile_functions.warmwasser_setting.WarmwasserSetting.verify_WwTherDes_temps_in_days_screen}{{9.4}{55}{py : Warmwasser Settings}{section*.233}{}}
\newlabel{Profile_functions/warmwasser_setting:Profile_functions.warmwasser_setting.WarmwasserSetting.verify_WwTherDes_times}{{9.4}{55}{py : Warmwasser Settings}{section*.234}{}}
\newlabel{Profile_functions/warmwasser_setting:Profile_functions.warmwasser_setting.WarmwasserSetting.verify_Zirkulation_with_WPM}{{9.4}{55}{py : Warmwasser Settings}{section*.235}{}}
\@writefile{toc}{\contentsline {chapter}{\numberline {10}py : Test Cases}{57}{chapter.10}\protected@file@percent }
\@writefile{lof}{\addvspace {10\p@ }}
\@writefile{lot}{\addvspace {10\p@ }}
\newlabel{src/test_cases:module-src.test_cases}{{10}{57}{py : Test Cases}{chapter.10}{}}
\newlabel{src/test_cases:py-test-cases}{{10}{57}{py : Test Cases}{chapter.10}{}}
\newlabel{src/test_cases::doc}{{10}{57}{py : Test Cases}{chapter.10}{}}
\newlabel{src/test_cases:src.test_cases.DefTestCases}{{10}{57}{py : Test Cases}{section*.236}{}}
\newlabel{src/test_cases:src.test_cases.DefTestCases.setUp}{{10}{58}{py : Test Cases}{section*.237}{}}
\newlabel{src/test_cases:src.test_cases.DefTestCases.setUpClass}{{10}{58}{py : Test Cases}{section*.238}{}}
\newlabel{src/test_cases:src.test_cases.DefTestCases.tearDown}{{10}{58}{py : Test Cases}{section*.239}{}}
\newlabel{src/test_cases:src.test_cases.DefTestCases.tearDownClass}{{10}{58}{py : Test Cases}{section*.240}{}}
\newlabel{src/test_cases:src.test_cases.DefTestCases.test_Aussentemperatur_Einstellungen}{{10}{58}{py : Test Cases}{section*.241}{}}
\newlabel{src/test_cases:src.test_cases.DefTestCases.test_Belegreifheizen}{{10}{58}{py : Test Cases}{section*.242}{}}
\newlabel{src/test_cases:src.test_cases.DefTestCases.test_Betriebsdaten}{{10}{58}{py : Test Cases}{section*.243}{}}
\newlabel{src/test_cases:src.test_cases.DefTestCases.test_Betriebsmodus}{{10}{58}{py : Test Cases}{section*.244}{}}
\newlabel{src/test_cases:src.test_cases.DefTestCases.test_EasyOn}{{10}{58}{py : Test Cases}{section*.245}{}}
\newlabel{src/test_cases:src.test_cases.DefTestCases.test_Festwert_Einstellungen}{{10}{58}{py : Test Cases}{section*.246}{}}
\newlabel{src/test_cases:src.test_cases.DefTestCases.test_Funktionsheizen}{{10}{58}{py : Test Cases}{section*.247}{}}
\newlabel{src/test_cases:src.test_cases.DefTestCases.test_Funktionskontrolle_Pumpe}{{10}{58}{py : Test Cases}{section*.248}{}}
\newlabel{src/test_cases:src.test_cases.DefTestCases.test_Funktionssperren}{{10}{59}{py : Test Cases}{section*.249}{}}
\newlabel{src/test_cases:src.test_cases.DefTestCases.test_Kontrolle_Mischer_Ventile}{{10}{59}{py : Test Cases}{section*.250}{}}
\newlabel{src/test_cases:src.test_cases.DefTestCases.test_Profile}{{10}{59}{py : Test Cases}{section*.251}{}}
\newlabel{src/test_cases:src.test_cases.DefTestCases.test_Raumregler_Einstellungen}{{10}{59}{py : Test Cases}{section*.252}{}}
\newlabel{src/test_cases:src.test_cases.DefTestCases.test_Systemzustand}{{10}{59}{py : Test Cases}{section*.253}{}}
\newlabel{src/test_cases:src.test_cases.DefTestCases.test_Waermemenge}{{10}{59}{py : Test Cases}{section*.254}{}}
\newlabel{src/test_cases:src.test_cases.DefTestCases.test_Warmwasser_Einstellungen}{{10}{59}{py : Test Cases}{section*.255}{}}
\newlabel{src/test_cases:src.test_cases.DefTestCases.test_anlagendaten}{{10}{59}{py : Test Cases}{section*.256}{}}
\newlabel{src/test_cases:src.test_cases.DefTestCases.test_date_and_time}{{10}{59}{py : Test Cases}{section*.257}{}}
\newlabel{src/test_cases:src.test_cases.DefTestCases.test_kontroll_heizstab}{{10}{59}{py : Test Cases}{section*.258}{}}
\newlabel{src/test_cases:src.test_cases.DefTestCases.test_laufzeit_und_taktungen}{{10}{59}{py : Test Cases}{section*.259}{}}
\newlabel{src/test_cases:src.test_cases.DefTestCases.test_network}{{10}{60}{py : Test Cases}{section*.260}{}}
\newlabel{src/test_cases:src.test_cases.DefTestCases.test_screen_lock}{{10}{60}{py : Test Cases}{section*.261}{}}
\newlabel{src/test_cases:src.test_cases.DefTestCases.test_software_update}{{10}{60}{py : Test Cases}{section*.262}{}}
\newlabel{src/test_cases:src.test_cases.DefTestCases.test_sprache_region}{{10}{60}{py : Test Cases}{section*.263}{}}
\newlabel{src/test_cases:src.test_cases.DefTestCases.test_wireless_hotspot}{{10}{60}{py : Test Cases}{section*.264}{}}
\@writefile{toc}{\contentsline {section}{\numberline {10.1}py : Anheizprogramm}{60}{section.10.1}\protected@file@percent }
\newlabel{Helping_functions/Anheizprogramm:module-Helping_functions.Anheizprogramm}{{10.1}{60}{py : Anheizprogramm}{section.10.1}{}}
\newlabel{Helping_functions/Anheizprogramm:py-anheizprogramm}{{10.1}{60}{py : Anheizprogramm}{section.10.1}{}}
\newlabel{Helping_functions/Anheizprogramm::doc}{{10.1}{60}{py : Anheizprogramm}{section.10.1}{}}
\newlabel{Helping_functions/Anheizprogramm:Helping_functions.Anheizprogramm.AnheizProgramm}{{10.1}{60}{py : Anheizprogramm}{section*.265}{}}
\newlabel{Helping_functions/Anheizprogramm:Helping_functions.Anheizprogramm.AnheizProgramm.activate_WwBereitung}{{10.1}{61}{py : Anheizprogramm}{section*.266}{}}
\newlabel{Helping_functions/Anheizprogramm:Helping_functions.Anheizprogramm.AnheizProgramm.check_Belegreifheizen_screen}{{10.1}{61}{py : Anheizprogramm}{section*.267}{}}
\newlabel{Helping_functions/Anheizprogramm:Helping_functions.Anheizprogramm.AnheizProgramm.check_Funktionsheizen_screen}{{10.1}{61}{py : Anheizprogramm}{section*.268}{}}
\newlabel{Helping_functions/Anheizprogramm:Helping_functions.Anheizprogramm.AnheizProgramm.check_count_down_screen}{{10.1}{61}{py : Anheizprogramm}{section*.269}{}}
\newlabel{Helping_functions/Anheizprogramm:Helping_functions.Anheizprogramm.AnheizProgramm.get_Max_temp_from_WPM}{{10.1}{61}{py : Anheizprogramm}{section*.270}{}}
\newlabel{Helping_functions/Anheizprogramm:Helping_functions.Anheizprogramm.AnheizProgramm.get_TempDiff_Abheizen_WPM}{{10.1}{61}{py : Anheizprogramm}{section*.271}{}}
\newlabel{Helping_functions/Anheizprogramm:Helping_functions.Anheizprogramm.AnheizProgramm.get_TempDiff_Aufheizen_WPM}{{10.1}{62}{py : Anheizprogramm}{section*.272}{}}
\newlabel{Helping_functions/Anheizprogramm:Helping_functions.Anheizprogramm.AnheizProgramm.get_Zeitdauer_Abheizen_WPM}{{10.1}{62}{py : Anheizprogramm}{section*.273}{}}
\newlabel{Helping_functions/Anheizprogramm:Helping_functions.Anheizprogramm.AnheizProgramm.get_Zeitdauer_Aufheizen_WPM}{{10.1}{62}{py : Anheizprogramm}{section*.274}{}}
\newlabel{Helping_functions/Anheizprogramm:Helping_functions.Anheizprogramm.AnheizProgramm.get_Zeitdauer_Halten_WPM}{{10.1}{62}{py : Anheizprogramm}{section*.275}{}}
\newlabel{Helping_functions/Anheizprogramm:Helping_functions.Anheizprogramm.AnheizProgramm.get_status_Anheizen_status_from_WPM}{{10.1}{62}{py : Anheizprogramm}{section*.276}{}}
\newlabel{Helping_functions/Anheizprogramm:Helping_functions.Anheizprogramm.AnheizProgramm.get_status_Belegriefheizen_status_from_WPM}{{10.1}{62}{py : Anheizprogramm}{section*.277}{}}
\newlabel{Helping_functions/Anheizprogramm:Helping_functions.Anheizprogramm.AnheizProgramm.get_status_WwBereitung_from_WPM}{{10.1}{62}{py : Anheizprogramm}{section*.278}{}}
\newlabel{Helping_functions/Anheizprogramm:Helping_functions.Anheizprogramm.AnheizProgramm.set_Anheizprogramm_Max_temp}{{10.1}{62}{py : Anheizprogramm}{section*.279}{}}
\newlabel{Helping_functions/Anheizprogramm:Helping_functions.Anheizprogramm.AnheizProgramm.set_TempDiff_Abheizen}{{10.1}{62}{py : Anheizprogramm}{section*.280}{}}
\newlabel{Helping_functions/Anheizprogramm:Helping_functions.Anheizprogramm.AnheizProgramm.set_TempDiff_Aufheizen}{{10.1}{63}{py : Anheizprogramm}{section*.281}{}}
\newlabel{Helping_functions/Anheizprogramm:Helping_functions.Anheizprogramm.AnheizProgramm.set_ZeitDauer_Abheizen}{{10.1}{63}{py : Anheizprogramm}{section*.282}{}}
\newlabel{Helping_functions/Anheizprogramm:Helping_functions.Anheizprogramm.AnheizProgramm.set_ZeitDauer_Aufheizen}{{10.1}{63}{py : Anheizprogramm}{section*.283}{}}
\newlabel{Helping_functions/Anheizprogramm:Helping_functions.Anheizprogramm.AnheizProgramm.set_ZeitDauer_Halten}{{10.1}{63}{py : Anheizprogramm}{section*.284}{}}
\newlabel{Helping_functions/Anheizprogramm:Helping_functions.Anheizprogramm.AnheizProgramm.setup_Belegreifheizen}{{10.1}{63}{py : Anheizprogramm}{section*.285}{}}
\newlabel{Helping_functions/Anheizprogramm:Helping_functions.Anheizprogramm.AnheizProgramm.start_Anheizprogramm}{{10.1}{63}{py : Anheizprogramm}{section*.286}{}}
\newlabel{Helping_functions/Anheizprogramm:Helping_functions.Anheizprogramm.AnheizProgramm.stop_Anheizprogramm}{{10.1}{63}{py : Anheizprogramm}{section*.287}{}}
\newlabel{Helping_functions/Anheizprogramm:Helping_functions.Anheizprogramm.AnheizProgramm.verify_Belegreifheizen}{{10.1}{63}{py : Anheizprogramm}{section*.288}{}}
\newlabel{Helping_functions/Anheizprogramm:Helping_functions.Anheizprogramm.AnheizProgramm.verify_Funktionsheizen_in_WPM}{{10.1}{64}{py : Anheizprogramm}{section*.289}{}}
\@writefile{toc}{\contentsline {section}{\numberline {10.2}py : Anlagendaten}{64}{section.10.2}\protected@file@percent }
\newlabel{Helping_functions/anlagen_daten:module-Helping_functions.anlagen_daten}{{10.2}{64}{py : Anlagendaten}{section.10.2}{}}
\newlabel{Helping_functions/anlagen_daten:py-anlagendaten}{{10.2}{64}{py : Anlagendaten}{section.10.2}{}}
\newlabel{Helping_functions/anlagen_daten::doc}{{10.2}{64}{py : Anlagendaten}{section.10.2}{}}
\newlabel{Helping_functions/anlagen_daten:Helping_functions.anlagen_daten.AnlagenDaten}{{10.2}{64}{py : Anlagendaten}{section*.290}{}}
\newlabel{Helping_functions/anlagen_daten:Helping_functions.anlagen_daten.AnlagenDaten.get_KKR_ver_from_WPM}{{10.2}{64}{py : Anlagendaten}{section*.291}{}}
\newlabel{Helping_functions/anlagen_daten:Helping_functions.anlagen_daten.AnlagenDaten.get_WPM_ver_from_WPM}{{10.2}{64}{py : Anlagendaten}{section*.292}{}}
\newlabel{Helping_functions/anlagen_daten:Helping_functions.anlagen_daten.AnlagenDaten.get_WQMF_ver_from_WPM}{{10.2}{64}{py : Anlagendaten}{section*.293}{}}
\newlabel{Helping_functions/anlagen_daten:Helping_functions.anlagen_daten.AnlagenDaten.get_serial_no_from_WPM}{{10.2}{64}{py : Anlagendaten}{section*.294}{}}
\newlabel{Helping_functions/anlagen_daten:Helping_functions.anlagen_daten.AnlagenDaten.get_uhi_version_from_api}{{10.2}{64}{py : Anlagendaten}{section*.295}{}}
\newlabel{Helping_functions/anlagen_daten:Helping_functions.anlagen_daten.AnlagenDaten.get_uhi_versions_info}{{10.2}{65}{py : Anlagendaten}{section*.296}{}}
\@writefile{toc}{\contentsline {section}{\numberline {10.3}py : Betriebsdaten}{65}{section.10.3}\protected@file@percent }
\newlabel{Helping_functions/Betriebsdaten:module-Helping_functions.Betriebsdaten}{{10.3}{65}{py : Betriebsdaten}{section.10.3}{}}
\newlabel{Helping_functions/Betriebsdaten:py-betriebsdaten}{{10.3}{65}{py : Betriebsdaten}{section.10.3}{}}
\newlabel{Helping_functions/Betriebsdaten::doc}{{10.3}{65}{py : Betriebsdaten}{section.10.3}{}}
\newlabel{Helping_functions/Betriebsdaten:Helping_functions.Betriebsdaten.BetriebsDaten}{{10.3}{65}{py : Betriebsdaten}{section*.297}{}}
\newlabel{Helping_functions/Betriebsdaten:Helping_functions.Betriebsdaten.BetriebsDaten.Betriebdaten_without_units}{{10.3}{65}{py : Betriebsdaten}{section*.298}{}}
\newlabel{Helping_functions/Betriebsdaten:Helping_functions.Betriebsdaten.BetriebsDaten.get_Anz_Ww_Soll_temp}{{10.3}{65}{py : Betriebsdaten}{section*.299}{}}
\newlabel{Helping_functions/Betriebsdaten:Helping_functions.Betriebsdaten.BetriebsDaten.get_Aussen_temp_from_WPM}{{10.3}{66}{py : Betriebsdaten}{section*.300}{}}
\newlabel{Helping_functions/Betriebsdaten:Helping_functions.Betriebsdaten.BetriebsDaten.get_Betriebsdaten_from_UHI}{{10.3}{66}{py : Betriebsdaten}{section*.301}{}}
\newlabel{Helping_functions/Betriebsdaten:Helping_functions.Betriebsdaten.BetriebsDaten.get_HK1_Ist_temp_from_WPM}{{10.3}{66}{py : Betriebsdaten}{section*.302}{}}
\newlabel{Helping_functions/Betriebsdaten:Helping_functions.Betriebsdaten.BetriebsDaten.get_HK1_Soll_temp_from_WPM}{{10.3}{66}{py : Betriebsdaten}{section*.303}{}}
\newlabel{Helping_functions/Betriebsdaten:Helping_functions.Betriebsdaten.BetriebsDaten.get_HK2_Ist_temp_from_WPM}{{10.3}{66}{py : Betriebsdaten}{section*.304}{}}
\newlabel{Helping_functions/Betriebsdaten:Helping_functions.Betriebsdaten.BetriebsDaten.get_HK2_Soll_temp_from_WPM}{{10.3}{66}{py : Betriebsdaten}{section*.305}{}}
\newlabel{Helping_functions/Betriebsdaten:Helping_functions.Betriebsdaten.BetriebsDaten.get_Ruecklauf_WP_temp_from_WPM}{{10.3}{66}{py : Betriebsdaten}{section*.306}{}}
\newlabel{Helping_functions/Betriebsdaten:Helping_functions.Betriebsdaten.BetriebsDaten.get_Vorlauf_WP_temp_from_WPM}{{10.3}{66}{py : Betriebsdaten}{section*.307}{}}
\newlabel{Helping_functions/Betriebsdaten:Helping_functions.Betriebsdaten.BetriebsDaten.get_Werts_from_WPM}{{10.3}{66}{py : Betriebsdaten}{section*.308}{}}
\newlabel{Helping_functions/Betriebsdaten:Helping_functions.Betriebsdaten.BetriebsDaten.get_Werts_values_from_WPM}{{10.3}{67}{py : Betriebsdaten}{section*.309}{}}
\newlabel{Helping_functions/Betriebsdaten:Helping_functions.Betriebsdaten.BetriebsDaten.get_other_Betriebsdaten_info_from_WPM}{{10.3}{67}{py : Betriebsdaten}{section*.310}{}}
\newlabel{Helping_functions/Betriebsdaten:Helping_functions.Betriebsdaten.BetriebsDaten.verify_Allgemeine_Betriebsdaten_with_WPM}{{10.3}{67}{py : Betriebsdaten}{section*.311}{}}
\newlabel{Helping_functions/Betriebsdaten:Helping_functions.Betriebsdaten.BetriebsDaten.verify_specific_HK_Betriebsdaten}{{10.3}{67}{py : Betriebsdaten}{section*.312}{}}
\@writefile{toc}{\contentsline {section}{\numberline {10.4}py : Betriebsmodus}{67}{section.10.4}\protected@file@percent }
\newlabel{Helping_functions/Betriebsmodus:module-Helping_functions.Betriebsmodus}{{10.4}{67}{py : Betriebsmodus}{section.10.4}{}}
\newlabel{Helping_functions/Betriebsmodus:py-betriebsmodus}{{10.4}{67}{py : Betriebsmodus}{section.10.4}{}}
\newlabel{Helping_functions/Betriebsmodus::doc}{{10.4}{67}{py : Betriebsmodus}{section.10.4}{}}
\newlabel{Helping_functions/Betriebsmodus:Helping_functions.Betriebsmodus.BetriebsModus}{{10.4}{67}{py : Betriebsmodus}{section*.313}{}}
\newlabel{Helping_functions/Betriebsmodus:Helping_functions.Betriebsmodus.BetriebsModus.click_area_title_by_name}{{10.4}{68}{py : Betriebsmodus}{section*.314}{}}
\newlabel{Helping_functions/Betriebsmodus:Helping_functions.Betriebsmodus.BetriebsModus.click_right_arrow_by_option}{{10.4}{68}{py : Betriebsmodus}{section*.315}{}}
\newlabel{Helping_functions/Betriebsmodus:Helping_functions.Betriebsmodus.BetriebsModus.get_Automatik_Cooling_limit_from_WPM}{{10.4}{68}{py : Betriebsmodus}{section*.316}{}}
\newlabel{Helping_functions/Betriebsmodus:Helping_functions.Betriebsmodus.BetriebsModus.get_Automatik_Heating_limit_from_WPM}{{10.4}{68}{py : Betriebsmodus}{section*.317}{}}
\newlabel{Helping_functions/Betriebsmodus:Helping_functions.Betriebsmodus.BetriebsModus.get_Automatik_status_from_WPM}{{10.4}{68}{py : Betriebsmodus}{section*.318}{}}
\newlabel{Helping_functions/Betriebsmodus:Helping_functions.Betriebsmodus.BetriebsModus.get_Automatik_time_limit_from_WPM}{{10.4}{68}{py : Betriebsmodus}{section*.319}{}}
\newlabel{Helping_functions/Betriebsmodus:Helping_functions.Betriebsmodus.BetriebsModus.get_Betriebsmodus_from_json}{{10.4}{68}{py : Betriebsmodus}{section*.320}{}}
\newlabel{Helping_functions/Betriebsmodus:Helping_functions.Betriebsmodus.BetriebsModus.get_Grenz_values_from_UHI}{{10.4}{68}{py : Betriebsmodus}{section*.321}{}}
\newlabel{Helping_functions/Betriebsmodus:Helping_functions.Betriebsmodus.BetriebsModus.get_Party_hours_from_WPM}{{10.4}{69}{py : Betriebsmodus}{section*.322}{}}
\newlabel{Helping_functions/Betriebsmodus:Helping_functions.Betriebsmodus.BetriebsModus.get_Urlaub_days_from_WPM}{{10.4}{69}{py : Betriebsmodus}{section*.323}{}}
\newlabel{Helping_functions/Betriebsmodus:Helping_functions.Betriebsmodus.BetriebsModus.set_Grenz_temperature}{{10.4}{69}{py : Betriebsmodus}{section*.324}{}}
\newlabel{Helping_functions/Betriebsmodus:Helping_functions.Betriebsmodus.BetriebsModus.set_Grenz_time}{{10.4}{69}{py : Betriebsmodus}{section*.325}{}}
\newlabel{Helping_functions/Betriebsmodus:Helping_functions.Betriebsmodus.BetriebsModus.test_Betriebsmodus_in_UHI}{{10.4}{69}{py : Betriebsmodus}{section*.326}{}}
\newlabel{Helping_functions/Betriebsmodus:Helping_functions.Betriebsmodus.BetriebsModus.verify_Manuell_modus_with_WPM}{{10.4}{70}{py : Betriebsmodus}{section*.327}{}}
\newlabel{Helping_functions/Betriebsmodus:Helping_functions.Betriebsmodus.BetriebsModus.verify_Party_modus_with_WPM}{{10.4}{70}{py : Betriebsmodus}{section*.328}{}}
\newlabel{Helping_functions/Betriebsmodus:Helping_functions.Betriebsmodus.BetriebsModus.verify_Urlaub_modus_with_WPM}{{10.4}{70}{py : Betriebsmodus}{section*.329}{}}
\@writefile{toc}{\contentsline {section}{\numberline {10.5}py : Date and Time}{70}{section.10.5}\protected@file@percent }
\newlabel{Helping_functions/date_and_time:module-Helping_functions.date_and_time}{{10.5}{70}{py : Date and Time}{section.10.5}{}}
\newlabel{Helping_functions/date_and_time:py-date-and-time}{{10.5}{70}{py : Date and Time}{section.10.5}{}}
\newlabel{Helping_functions/date_and_time::doc}{{10.5}{70}{py : Date and Time}{section.10.5}{}}
\newlabel{Helping_functions/date_and_time:Helping_functions.date_and_time.DateAndTime}{{10.5}{70}{py : Date and Time}{section*.330}{}}
\newlabel{Helping_functions/date_and_time:Helping_functions.date_and_time.DateAndTime.get_Automatik_date_time_from_ntp}{{10.5}{70}{py : Date and Time}{section*.331}{}}
\newlabel{Helping_functions/date_and_time:Helping_functions.date_and_time.DateAndTime.get_active_element_from_UHI}{{10.5}{70}{py : Date and Time}{section*.332}{}}
\newlabel{Helping_functions/date_and_time:Helping_functions.date_and_time.DateAndTime.get_inactive_element_from_UHI}{{10.5}{70}{py : Date and Time}{section*.333}{}}
\newlabel{Helping_functions/date_and_time:Helping_functions.date_and_time.DateAndTime.get_uhi_date}{{10.5}{70}{py : Date and Time}{section*.334}{}}
\newlabel{Helping_functions/date_and_time:Helping_functions.date_and_time.DateAndTime.get_uhi_time}{{10.5}{71}{py : Date and Time}{section*.335}{}}
\newlabel{Helping_functions/date_and_time:Helping_functions.date_and_time.DateAndTime.set_and_verify_Manuell_time}{{10.5}{71}{py : Date and Time}{section*.336}{}}
\newlabel{Helping_functions/date_and_time:Helping_functions.date_and_time.DateAndTime.switch_to_Automatik_date_time_mode}{{10.5}{71}{py : Date and Time}{section*.337}{}}
\newlabel{Helping_functions/date_and_time:Helping_functions.date_and_time.DateAndTime.switch_to_Manuell_date_time_mode}{{10.5}{71}{py : Date and Time}{section*.338}{}}
\newlabel{Helping_functions/date_and_time:Helping_functions.date_and_time.DateAndTime.verify_WPM_date}{{10.5}{71}{py : Date and Time}{section*.339}{}}
\newlabel{Helping_functions/date_and_time:Helping_functions.date_and_time.DateAndTime.verify_WPM_time}{{10.5}{71}{py : Date and Time}{section*.340}{}}
\@writefile{toc}{\contentsline {section}{\numberline {10.6}py : Funktionskontroll}{72}{section.10.6}\protected@file@percent }
\newlabel{Helping_functions/function_control:module-Helping_functions.function_control}{{10.6}{72}{py : Funktionskontroll}{section.10.6}{}}
\newlabel{Helping_functions/function_control:py-funktionskontroll}{{10.6}{72}{py : Funktionskontroll}{section.10.6}{}}
\newlabel{Helping_functions/function_control::doc}{{10.6}{72}{py : Funktionskontroll}{section.10.6}{}}
\newlabel{Helping_functions/function_control:Helping_functions.function_control.FunctionControl}{{10.6}{72}{py : Funktionskontroll}{section*.341}{}}
\newlabel{Helping_functions/function_control:Helping_functions.function_control.FunctionControl.Biv_Mischer_status}{{10.6}{72}{py : Funktionskontroll}{section*.342}{}}
\newlabel{Helping_functions/function_control:Helping_functions.function_control.FunctionControl.Fun_Code_Biv}{{10.6}{72}{py : Funktionskontroll}{section*.343}{}}
\newlabel{Helping_functions/function_control:Helping_functions.function_control.FunctionControl.Funkt_Kontr_Aktiv}{{10.6}{72}{py : Funktionskontroll}{section*.344}{}}
\newlabel{Helping_functions/function_control:Helping_functions.function_control.FunctionControl.HK1_Msicher_status}{{10.6}{73}{py : Funktionskontroll}{section*.345}{}}
\newlabel{Helping_functions/function_control:Helping_functions.function_control.FunctionControl.HK2_Msicher_status}{{10.6}{73}{py : Funktionskontroll}{section*.346}{}}
\newlabel{Helping_functions/function_control:Helping_functions.function_control.FunctionControl.P_FK_HUP1}{{10.6}{73}{py : Funktionskontroll}{section*.347}{}}
\newlabel{Helping_functions/function_control:Helping_functions.function_control.FunctionControl.P_FK_HUP2}{{10.6}{73}{py : Funktionskontroll}{section*.348}{}}
\newlabel{Helping_functions/function_control:Helping_functions.function_control.FunctionControl.P_FK_Mi_Biv}{{10.6}{73}{py : Funktionskontroll}{section*.349}{}}
\newlabel{Helping_functions/function_control:Helping_functions.function_control.FunctionControl.P_FK_Mi_Hk1}{{10.6}{73}{py : Funktionskontroll}{section*.350}{}}
\newlabel{Helping_functions/function_control:Helping_functions.function_control.FunctionControl.P_FK_Mi_Hk2}{{10.6}{73}{py : Funktionskontroll}{section*.351}{}}
\newlabel{Helping_functions/function_control:Helping_functions.function_control.FunctionControl.P_FK_VEN}{{10.6}{73}{py : Funktionskontroll}{section*.352}{}}
\newlabel{Helping_functions/function_control:Helping_functions.function_control.FunctionControl.P_FK_WUP}{{10.6}{73}{py : Funktionskontroll}{section*.353}{}}
\newlabel{Helping_functions/function_control:Helping_functions.function_control.FunctionControl.P_FK_ZUP}{{10.6}{73}{py : Funktionskontroll}{section*.354}{}}
\newlabel{Helping_functions/function_control:Helping_functions.function_control.FunctionControl.P_FK_ZWE}{{10.6}{74}{py : Funktionskontroll}{section*.355}{}}
\newlabel{Helping_functions/function_control:Helping_functions.function_control.FunctionControl.P_FK_ZWUP}{{10.6}{74}{py : Funktionskontroll}{section*.356}{}}
\newlabel{Helping_functions/function_control:Helping_functions.function_control.FunctionControl.P_FK_Zeit_Ein}{{10.6}{74}{py : Funktionskontroll}{section*.357}{}}
\newlabel{Helping_functions/function_control:Helping_functions.function_control.FunctionControl.Reg_Mischer_status}{{10.6}{74}{py : Funktionskontroll}{section*.358}{}}
\newlabel{Helping_functions/function_control:Helping_functions.function_control.FunctionControl.check_options_from_config}{{10.6}{74}{py : Funktionskontroll}{section*.359}{}}
\newlabel{Helping_functions/function_control:Helping_functions.function_control.FunctionControl.get_max_Mischerlaufzeit_WPM}{{10.6}{74}{py : Funktionskontroll}{section*.360}{}}
\newlabel{Helping_functions/function_control:Helping_functions.function_control.FunctionControl.verify_results}{{10.6}{74}{py : Funktionskontroll}{section*.361}{}}
\newlabel{Helping_functions/function_control:Helping_functions.function_control.FunctionControl.verify_toggle_after_time}{{10.6}{74}{py : Funktionskontroll}{section*.362}{}}
\@writefile{toc}{\contentsline {section}{\numberline {10.7}py : Funktionssperren}{75}{section.10.7}\protected@file@percent }
\newlabel{Helping_functions/Funktionssperren:module-Helping_functions.Funktionssperren}{{10.7}{75}{py : Funktionssperren}{section.10.7}{}}
\newlabel{Helping_functions/Funktionssperren:py-funktionssperren}{{10.7}{75}{py : Funktionssperren}{section.10.7}{}}
\newlabel{Helping_functions/Funktionssperren::doc}{{10.7}{75}{py : Funktionssperren}{section.10.7}{}}
\newlabel{Helping_functions/Funktionssperren:Helping_functions.Funktionssperren.FunktionsSperren}{{10.7}{75}{py : Funktionssperren}{section*.363}{}}
\newlabel{Helping_functions/Funktionssperren:Helping_functions.Funktionssperren.FunktionsSperren.activate_Funktionssperren}{{10.7}{75}{py : Funktionssperren}{section*.364}{}}
\newlabel{Helping_functions/Funktionssperren:Helping_functions.Funktionssperren.FunktionsSperren.activate_Funktionssperren_by_option}{{10.7}{75}{py : Funktionssperren}{section*.365}{}}
\newlabel{Helping_functions/Funktionssperren:Helping_functions.Funktionssperren.FunktionsSperren.deactivate_Funktionssperren}{{10.7}{76}{py : Funktionssperren}{section*.366}{}}
\newlabel{Helping_functions/Funktionssperren:Helping_functions.Funktionssperren.FunktionsSperren.deactivate_Funktionssperren_by_option}{{10.7}{76}{py : Funktionssperren}{section*.367}{}}
\newlabel{Helping_functions/Funktionssperren:Helping_functions.Funktionssperren.FunktionsSperren.get_Biv_Fkt_Sperre_status_from_WPM}{{10.7}{76}{py : Funktionssperren}{section*.368}{}}
\newlabel{Helping_functions/Funktionssperren:Helping_functions.Funktionssperren.FunktionsSperren.get_Funktionssperren_status_json}{{10.7}{76}{py : Funktionssperren}{section*.369}{}}
\newlabel{Helping_functions/Funktionssperren:Helping_functions.Funktionssperren.FunktionsSperren.get_KA_Fkt_Sperre_status_from_WPM}{{10.7}{76}{py : Funktionssperren}{section*.370}{}}
\newlabel{Helping_functions/Funktionssperren:Helping_functions.Funktionssperren.FunktionsSperren.get_KP_Fkt_Sperre_status_from_WPM}{{10.7}{76}{py : Funktionssperren}{section*.371}{}}
\newlabel{Helping_functions/Funktionssperren:Helping_functions.Funktionssperren.FunktionsSperren.get_Reg_Fkt_Sperre_status_from_WPM}{{10.7}{76}{py : Funktionssperren}{section*.372}{}}
\newlabel{Helping_functions/Funktionssperren:Helping_functions.Funktionssperren.FunktionsSperren.get_Sw_Fkt_Sperre_status_from_WPM}{{10.7}{76}{py : Funktionssperren}{section*.373}{}}
\newlabel{Helping_functions/Funktionssperren:Helping_functions.Funktionssperren.FunktionsSperren.get_Ww_Fkt_Sperre_status_from_WPM}{{10.7}{77}{py : Funktionssperren}{section*.374}{}}
\newlabel{Helping_functions/Funktionssperren:Helping_functions.Funktionssperren.FunktionsSperren.verify_Funktionssperren_after_activation}{{10.7}{77}{py : Funktionssperren}{section*.375}{}}
\newlabel{Helping_functions/Funktionssperren:Helping_functions.Funktionssperren.FunktionsSperren.verify_Funktionssperren_after_deactivation}{{10.7}{77}{py : Funktionssperren}{section*.376}{}}
\newlabel{Helping_functions/Funktionssperren:Helping_functions.Funktionssperren.FunktionsSperren.verify_Funktionssperren_with_WPM_after_activation}{{10.7}{77}{py : Funktionssperren}{section*.377}{}}
\newlabel{Helping_functions/Funktionssperren:Helping_functions.Funktionssperren.FunktionsSperren.verify_Funktionssperren_with_WPM_after_deactivation}{{10.7}{77}{py : Funktionssperren}{section*.378}{}}
\@writefile{toc}{\contentsline {section}{\numberline {10.8}py : Language and Region}{77}{section.10.8}\protected@file@percent }
\newlabel{Helping_functions/language_and_region:module-Helping_functions.language_and_region}{{10.8}{77}{py : Language and Region}{section.10.8}{}}
\newlabel{Helping_functions/language_and_region:py-language-and-region}{{10.8}{77}{py : Language and Region}{section.10.8}{}}
\newlabel{Helping_functions/language_and_region::doc}{{10.8}{77}{py : Language and Region}{section.10.8}{}}
\newlabel{Helping_functions/language_and_region:Helping_functions.language_and_region.LanguageAndRegion}{{10.8}{77}{py : Language and Region}{section*.379}{}}
\newlabel{Helping_functions/language_and_region:Helping_functions.language_and_region.LanguageAndRegion.select_SpracheUndRegion_tile}{{10.8}{78}{py : Language and Region}{section*.380}{}}
\newlabel{Helping_functions/language_and_region:Helping_functions.language_and_region.LanguageAndRegion.select_languages_from_list}{{10.8}{78}{py : Language and Region}{section*.381}{}}
\newlabel{Helping_functions/language_and_region:Helping_functions.language_and_region.LanguageAndRegion.verify_language_on_tile}{{10.8}{78}{py : Language and Region}{section*.382}{}}
\@writefile{toc}{\contentsline {section}{\numberline {10.9}py : Laufzeit and Taktungen}{78}{section.10.9}\protected@file@percent }
\newlabel{Helping_functions/laufzeit_and_taktungen:module-Helping_functions.laufzeit_and_taktungen}{{10.9}{78}{py : Laufzeit and Taktungen}{section.10.9}{}}
\newlabel{Helping_functions/laufzeit_and_taktungen:py-laufzeit-and-taktungen}{{10.9}{78}{py : Laufzeit and Taktungen}{section.10.9}{}}
\newlabel{Helping_functions/laufzeit_and_taktungen::doc}{{10.9}{78}{py : Laufzeit and Taktungen}{section.10.9}{}}
\newlabel{Helping_functions/laufzeit_and_taktungen:Helping_functions.laufzeit_and_taktungen.LaufzeitUndTaktungen}{{10.9}{78}{py : Laufzeit and Taktungen}{section*.383}{}}
\newlabel{Helping_functions/laufzeit_and_taktungen:Helping_functions.laufzeit_and_taktungen.LaufzeitUndTaktungen.BS_PupVen}{{10.9}{79}{py : Laufzeit and Taktungen}{section*.384}{}}
\newlabel{Helping_functions/laufzeit_and_taktungen:Helping_functions.laufzeit_and_taktungen.LaufzeitUndTaktungen.BS_Vd1}{{10.9}{79}{py : Laufzeit and Taktungen}{section*.385}{}}
\newlabel{Helping_functions/laufzeit_and_taktungen:Helping_functions.laufzeit_and_taktungen.LaufzeitUndTaktungen.BS_Vd1_SV_H}{{10.9}{79}{py : Laufzeit and Taktungen}{section*.386}{}}
\newlabel{Helping_functions/laufzeit_and_taktungen:Helping_functions.laufzeit_and_taktungen.LaufzeitUndTaktungen.BS_Vd1_SV_K}{{10.9}{79}{py : Laufzeit and Taktungen}{section*.387}{}}
\newlabel{Helping_functions/laufzeit_and_taktungen:Helping_functions.laufzeit_and_taktungen.LaufzeitUndTaktungen.BS_Vd1_SV_WW}{{10.9}{79}{py : Laufzeit and Taktungen}{section*.388}{}}
\newlabel{Helping_functions/laufzeit_and_taktungen:Helping_functions.laufzeit_and_taktungen.LaufzeitUndTaktungen.BS_WUP}{{10.9}{79}{py : Laufzeit and Taktungen}{section*.389}{}}
\newlabel{Helping_functions/laufzeit_and_taktungen:Helping_functions.laufzeit_and_taktungen.LaufzeitUndTaktungen.BS_ZWE}{{10.9}{79}{py : Laufzeit and Taktungen}{section*.390}{}}
\newlabel{Helping_functions/laufzeit_and_taktungen:Helping_functions.laufzeit_and_taktungen.LaufzeitUndTaktungen.get_uhi_value}{{10.9}{79}{py : Laufzeit and Taktungen}{section*.391}{}}
\newlabel{Helping_functions/laufzeit_and_taktungen:Helping_functions.laufzeit_and_taktungen.LaufzeitUndTaktungen.verify_laufzeit_taktungen}{{10.9}{80}{py : Laufzeit and Taktungen}{section*.392}{}}
\newlabel{Helping_functions/laufzeit_and_taktungen:Helping_functions.laufzeit_and_taktungen.LaufzeitUndTaktungen.verify_sameName_laufzeit}{{10.9}{80}{py : Laufzeit and Taktungen}{section*.393}{}}
\newlabel{Helping_functions/laufzeit_and_taktungen:Helping_functions.laufzeit_and_taktungen.LaufzeitUndTaktungen.verify_sameName_taktungen}{{10.9}{80}{py : Laufzeit and Taktungen}{section*.394}{}}
\@writefile{toc}{\contentsline {section}{\numberline {10.10}py : Bildschrim Sperre}{80}{section.10.10}\protected@file@percent }
\newlabel{Helping_functions/screen_lock:module-Helping_functions.screen_lock}{{10.10}{80}{py : Bildschrim Sperre}{section.10.10}{}}
\newlabel{Helping_functions/screen_lock:py-bildschrim-sperre}{{10.10}{80}{py : Bildschrim Sperre}{section.10.10}{}}
\newlabel{Helping_functions/screen_lock::doc}{{10.10}{80}{py : Bildschrim Sperre}{section.10.10}{}}
\newlabel{Helping_functions/screen_lock:Helping_functions.screen_lock.ScreenLock}{{10.10}{80}{py : Bildschrim Sperre}{section*.395}{}}
\newlabel{Helping_functions/screen_lock:Helping_functions.screen_lock.ScreenLock.action_slider}{{10.10}{80}{py : Bildschrim Sperre}{section*.396}{}}
\newlabel{Helping_functions/screen_lock:Helping_functions.screen_lock.ScreenLock.check_auto_lock_time}{{10.10}{80}{py : Bildschrim Sperre}{section*.397}{}}
\newlabel{Helping_functions/screen_lock:Helping_functions.screen_lock.ScreenLock.select_lock_time}{{10.10}{81}{py : Bildschrim Sperre}{section*.398}{}}
\@writefile{toc}{\contentsline {section}{\numberline {10.11}py : Systemzustand}{81}{section.10.11}\protected@file@percent }
\newlabel{Helping_functions/Systemzustand:module-Helping_functions.Systemzustand}{{10.11}{81}{py : Systemzustand}{section.10.11}{}}
\newlabel{Helping_functions/Systemzustand:py-systemzustand}{{10.11}{81}{py : Systemzustand}{section.10.11}{}}
\newlabel{Helping_functions/Systemzustand::doc}{{10.11}{81}{py : Systemzustand}{section.10.11}{}}
\newlabel{Helping_functions/Systemzustand:Helping_functions.Systemzustand.SystemZustand}{{10.11}{81}{py : Systemzustand}{section*.399}{}}
\newlabel{Helping_functions/Systemzustand:Helping_functions.Systemzustand.SystemZustand.activate_Funktionsheizen}{{10.11}{81}{py : Systemzustand}{section*.400}{}}
\newlabel{Helping_functions/Systemzustand:Helping_functions.Systemzustand.SystemZustand.get_status_of_Funktionsheizen}{{10.11}{81}{py : Systemzustand}{section*.401}{}}
\newlabel{Helping_functions/Systemzustand:Helping_functions.Systemzustand.SystemZustand.verify_Systemzustand_tile}{{10.11}{81}{py : Systemzustand}{section*.402}{}}
\@writefile{toc}{\contentsline {section}{\numberline {10.12}py : W\IeC {\"a}rmemenge}{81}{section.10.12}\protected@file@percent }
\newlabel{Helping_functions/warmemenge:module-Helping_functions.warmemenge}{{10.12}{81}{py : Wärmemenge}{section.10.12}{}}
\newlabel{Helping_functions/warmemenge:py-warmemenge}{{10.12}{81}{py : Wärmemenge}{section.10.12}{}}
\newlabel{Helping_functions/warmemenge::doc}{{10.12}{81}{py : Wärmemenge}{section.10.12}{}}
\newlabel{Helping_functions/warmemenge:Helping_functions.warmemenge.Warmemenge}{{10.12}{81}{py : Wärmemenge}{section*.403}{}}
\newlabel{Helping_functions/warmemenge:Helping_functions.warmemenge.Warmemenge.get_Heizen_value_from_WPM}{{10.12}{82}{py : Wärmemenge}{section*.404}{}}
\newlabel{Helping_functions/warmemenge:Helping_functions.warmemenge.Warmemenge.get_Warmwasser_value_from_WPM}{{10.12}{82}{py : Wärmemenge}{section*.405}{}}
\@writefile{toc}{\contentsline {chapter}{\numberline {11}Indices and tables}{83}{chapter.11}\protected@file@percent }
\@writefile{lof}{\addvspace {10\p@ }}
\@writefile{lot}{\addvspace {10\p@ }}
\newlabel{UHI_Automation_Doc:indices-and-tables}{{11}{83}{Indices and tables}{chapter.11}{}}
\@writefile{toc}{\contentsline {chapter}{Python Module Index}{85}{section*.406}\protected@file@percent }
